<?xml version="1.0" encoding="UTF-8"?>
<svg xmlns="http://www.w3.org/2000/svg" width="300" height="300">
	<ellipse
		style="fill:#ffffff"
		cx="150"
		cy="150"
		rx="150"
		ry="150"/>
	<ellipse
		style="fill:#ff0000"
		cx="150"
		cy="150"
		rx="100"
		ry="100"/>
</svg>
